MSCS 264: Data Science 2 - Data types
…
z[, 1]

[1] 1 2

z[, -3]

     [,1] [,2] [,3]
[1,]    1    3    7
[2,]    2    4    8

We could use this with tibbles too, but it is generally better to use the column names (more readable, and less likely to get the wrong columns by accident), and you should probably use select, filter, or slice:

mpg[, 1:2]

# A tibble: 234 × 2
   manufacturer model     
   <chr>        <chr>     
 1 audi         a4        
 2 audi         a4        
 3 audi         a4        
 4 audi         a4        
 5 audi         a4        
 6 audi         a4        
 7 audi         a4        
 8 audi         a4 quattro
 9 audi         a4 quattro
10 audi         a4 quattro
# ℹ 224 more rows
…
$ is a shorthand way of extracting elements by name… it is similar to [[ in that it removes a level of hierarchy. You don’t need quotes. (We’ve seen this with tibbles before too!)

mpg_model$coefficients

(Intercept)         cty 
  0.8920411   1.3374556 

str

The str function allows us to see the structure of a list, as well as any attributes.

mpg

# A tibble: 234 × 11
   manufacturer model      displ  year   cyl trans drv     cty   hwy fl    class
   <chr>        <chr>      <dbl> <int> <int> <chr> <chr> <int> <int> <chr> <chr>
 1 audi         a4           1.8  1999     4 auto… f        18    29 p     comp…
 2 audi         a4           1.8  1999     4 manu… f        21    29 p     comp…
 3 audi         a4           2    2008     4 manu… f        20    31 p     comp…
 4 audi         a4           2    2008     4 auto… f        21    30 p     comp…
 5 audi         a4           2.8  1999     6 auto… f        16    26 p     comp…
 6 audi         a4           2.8  1999     6 manu… f        18    26 p     comp…
 7 audi         a4           3.1  2008     6 auto… f        18    27 p     comp…
 8 audi         a4 quattro   1.8  1999     4 manu… 4        18    26 p     comp…
 9 audi         a4 quattro   1.8  1999     4 auto… 4        16    25 p     comp…
10 audi         a4 quattro   2    2008     4 manu… 4        20    28 p     comp…
# ℹ 224 more rows
…
