SDS 264: Data Science 2 - Iteration
…
gap_files[[1]]   # pull off the first object in the list (i.e. 1952 data)

# A tibble: 142 × 5
   country     continent lifeExp      pop gdpPercap
   <chr>       <chr>       <dbl>    <dbl>     <dbl>
 1 Afghanistan Asia         28.8  8425333      779.
 2 Albania     Europe       55.2  1282697     1601.
 3 Algeria     Africa       43.1  9279525     2449.
 4 Angola      Africa       30.0  4232095     3521.
 5 Argentina   Americas     62.5 17876956     5911.
 6 Australia   Oceania      69.1  8691212    10040.
 7 Austria     Europe       66.8  6927772     6137.
 8 Bahrain     Asia         50.9   120447     9867.
 9 Bangladesh  Asia         37.5 46886859      684.
10 Belgium     Europe       68    8730405     8343.
# ℹ 132 more rows

use purrr::list_rbind() to combine them into a single data frame

gap_tidy <- list_rbind(gap_files)
class(gap_tidy)

[1] "tbl_df"     "tbl"        "data.frame"

gap_tidy

# A tibble: 1,704 × 5
   country     continent lifeExp      pop gdpPercap
   <chr>       <chr>       <dbl>    <dbl>     <dbl>
 1 Afghanistan Asia         28.8  8425333      779.
 2 Albania     Europe       55.2  1282697     1601.
 3 Algeria     Africa       43.1  9279525     2449.
 4 Angola      Africa       30.0  4232095     3521.
 5 Argentina   Americas     62.5 17876956     5911.
 6 Australia   Oceania      69.1  8691212    10040.
 7 Austria     Europe       66.8  6927772     6137.
 8 Bahrain     Asia         50.9   120447     9867.
 9 Bangladesh  Asia         37.5 46886859      684.
10 Belgium     Europe       68    8730405     8343.
# ℹ 1,694 more rows

We could even do all steps in a single pipeline:

list.files("Data/gapminder", pattern = "[.]xlsx$", full.names = TRUE) |>
  map(readxl::read_excel) |>
  list_rbind()

# A tibble: 1,704 × 5
   country     continent lifeExp      pop gdpPercap
   <chr>       <chr>       <dbl>    <dbl>     <dbl>
 1 Afghanistan Asia         28.8  8425333      779.
 2 Albania     Europe       55.2  1282697     1601.
 3 Algeria     Africa       43.1  9279525     2449.
 4 Angola      Africa       30.0  4232095     3521.
 5 Argentina   Americas     62.5 17876956     5911.
 6 Australia   Oceania      69.1  8691212    10040.
 7 Austria     Europe       66.8  6927772     6137.
 8 Bahrain     Asia         50.9   120447     9867.
 9 Bangladesh  Asia         37.5 46886859      684.
10 Belgium     Europe       68    8730405     8343.
# ℹ 1,694 more rows
…
# The middle line ensures that each of the 12 data frames in the list for
#   gap_files has a name determined by its filepath, unlike the gap_files
#   we created in step 2 above, which had no names (we could only identify
#   data frames by their position)
gap_files <- paths |> 
  set_names(basename) |>  
  map(readxl::read_excel)

# Now we can extract a particular year by its name:
gap_files[["1962.xlsx"]]

# A tibble: 142 × 5
   country     continent lifeExp      pop gdpPercap
   <chr>       <chr>       <dbl>    <dbl>     <dbl>
 1 Afghanistan Asia         32.0 10267083      853.
 2 Albania     Europe       64.8  1728137     2313.
 3 Algeria     Africa       48.3 11000948     2551.
 4 Angola      Africa       34    4826015     4269.
 5 Argentina   Americas     65.1 21283783     7133.
 6 Australia   Oceania      70.9 10794968    12217.
 7 Austria     Europe       69.5  7129864    10751.
 8 Bahrain     Asia         56.9   171863    12753.
 9 Bangladesh  Asia         41.2 56839289      686.
10 Belgium     Europe       70.2  9218400    10991.
# ℹ 132 more rows
…
Carefully explain each step in the pipeline below:

show_missing <- function(df, group_vars, summary_vars = everything()) {
  df |> 
    group_by(pick({{ group_vars }})) |> 
    summarize(
      across({{ summary_vars }}, \(x) sum(is.na(x))),
      .groups = "drop"
    ) |>
    select(where(\(x) any(x > 0)))
}
nycflights13::flights |> show_missing(c(year, month, day))

# A tibble: 365 × 9
    year month   day dep_time dep_delay arr_time arr_delay tailnum air_time
   <int> <int> <int>    <int>     <int>    <int>     <int>   <int>    <int>
 1  2013     1     1        4         4        5        11       0       11
 2  2013     1     2        8         8       10        15       2       15
 3  2013     1     3       10        10       10        14       2       14
 4  2013     1     4        6         6        6         7       2        7
 5  2013     1     5        3         3        3         3       1        3
 6  2013     1     6        1         1        1         3       0        3
 7  2013     1     7        3         3        3         3       1        3
 8  2013     1     8        4         4        4         7       1        7
 9  2013     1     9        5         5        7         9       2        9
10  2013     1    10        3         3        3         3       2        3
# ℹ 355 more rows
…
