SDS 264: Data Science 2 - Table Scraping in R
…
[[2]]
# A tibble: 6 × 7
  ``                                     JulJu AugAu  SepSe  OctOc  NovNo  DecDe
  <chr>                                  <dbl> <dbl>  <dbl>  <dbl>  <dbl>  <dbl>
1 Average high in ºF Av. high Hi         83     80    72     58     41     27   
2 Average low in ºF Av. low Lo           64     62    52     40     26     12   
3 Days with precipitation Days precip.…  10     10     9      8      8      8   
4 Hours of sunshine Hours sun. Sun      343    296   237    193    115    112   
5 Av. precipitation in inch Av. precip…   4.04   4.3   3.08   2.43   1.77   1.16
6 Av. snowfall in inch Snowfall Sn        0      0     0      1      9     12   

[[3]]
# A tibble: 31 × 7
   Day    HighºF LowºF `Prec/moinch` `Prec/yrinch` `Snow/moinch` `Snow/yrinch`
   <chr>   <dbl> <dbl>         <dbl>         <dbl>         <dbl>         <dbl>
 1 1 Jan    23.8   8.3          0.04          0.04          0.39           1  
 2 2 Jan    23.7   8.2          0.08          0.08          0.71           1.8
 3 3 Jan    23.6   8.1          0.12          0.12          1.1            2.8
 4 4 Jan    23.5   7.9          0.12          0.12          1.5            3.8
 5 5 Jan    23.5   7.8          0.16          0.16          1.81           4.6
 6 6 Jan    23.4   7.7          0.2           0.2           2.2            5.6
 7 7 Jan    23.4   7.6          0.24          0.24          2.6            6.6
 8 8 Jan    23.3   7.5          0.28          0.28          3.11           7.9
 9 9 Jan    23.3   7.4          0.28          0.28          3.5            8.9
10 10 Jan   23.3   7.3          0.31          0.31          3.9            9.9
# ℹ 21 more rows

[[4]]
# A tibble: 26 × 6
   Day    HighºF LowºF Precip.inch Snowinch `Snow d.inch`
   <chr>   <dbl> <dbl> <chr>       <chr>            <dbl>
 1 01 Dec   32    19   0.07        1.61                 7
 2 02 Dec   27    12   0.00        0.00                 6
 3 03 Dec   37.9  19.9 0.00        0.00                 6
 4 04 Dec   39    24.1 0.00        0.00                 6
 5 05 Dec   37    21.9 0.00        0.00                 5
 6 06 Dec   32    17.1 0.00        0.00                 5
 7 07 Dec   42.1  21.9 0.00        0.00                 5
 8 08 Dec   41    30.9 0.00        0.00                 5
 9 09 Dec   34    -0.9 0.16        2.52                 5
10 10 Dec    8.1  -4   T           T                    7
# ℹ 16 more rows
…
# 2: html_nodes()
tables <- html_nodes(pop_dens, css = "table") 
tables  # have to guesstimate which table contains our desired info

{xml_nodeset (2)}
[1] <table class="wikitable sortable plainrowheaders sticky-header-multi stat ...
[2] <table class="nowraplinks hlist mw-collapsible mw-collapsed navbox-inner" ...

# 3: html_table()
html_table(tables, header = TRUE, fill = TRUE)    # find the right table

[[1]]
# A tibble: 61 × 6
   Location               Density Density Population `Land area` `Land area`
   <chr>                  <chr>   <chr>   <chr>      <chr>       <chr>      
 1 Location               /mi2    /km2    Population mi2         km2        
 2 District of Columbia   11,131  4,297   678,972    61          158        
 3 New Jersey             1,263   488     9,290,841  7,354       19,047     
 4 Rhode Island           1,060   409     1,095,962  1,034       2,678      
 5 Puerto Rico            936     361     3,205,691  3,424       8,868      
 6 Massachusetts          898     347     7,001,399  7,800       20,202     
 7 Guam[4]                824     319     172,952    210         543        
 8 Connecticut            747     288     3,617,176  4,842       12,542     
 9 U.S. Virgin Islands[4] 737     284     98,750     134         348        
10 Maryland               637     246     6,180,253  9,707       25,142     
# ℹ 51 more rows
…
density_table <- html_table(tables, header = TRUE, fill = TRUE)[[1]]  
density_table

# A tibble: 61 × 6
   Location               Density Density Population `Land area` `Land area`
   <chr>                  <chr>   <chr>   <chr>      <chr>       <chr>      
 1 Location               /mi2    /km2    Population mi2         km2        
 2 District of Columbia   11,131  4,297   678,972    61          158        
 3 New Jersey             1,263   488     9,290,841  7,354       19,047     
 4 Rhode Island           1,060   409     1,095,962  1,034       2,678      
 5 Puerto Rico            936     361     3,205,691  3,424       8,868      
 6 Massachusetts          898     347     7,001,399  7,800       20,202     
 7 Guam[4]                824     319     172,952    210         543        
 8 Connecticut            747     288     3,617,176  4,842       12,542     
 9 U.S. Virgin Islands[4] 737     284     98,750     134         348        
10 Maryland               637     246     6,180,253  9,707       25,142     
# ℹ 51 more rows

# Perform Steps 0-3 using the polite package
session <- bow("https://en.wikipedia.org/wiki/List_of_states_and_territories_of_the_United_States_by_population_density", force = TRUE)

result <- scrape(session) |>
  html_nodes(css = "table") |> 
  html_table(header = TRUE, fill = TRUE)
density_table <- result[[1]]
density_table

# A tibble: 61 × 6
   Location               Density Density Population `Land area` `Land area`
   <chr>                  <chr>   <chr>   <chr>      <chr>       <chr>      
 1 Location               /mi2    /km2    Population mi2         km2        
 2 District of Columbia   11,131  4,297   678,972    61          158        
 3 New Jersey             1,263   488     9,290,841  7,354       19,047     
 4 Rhode Island           1,060   409     1,095,962  1,034       2,678      
 5 Puerto Rico            936     361     3,205,691  3,424       8,868      
 6 Massachusetts          898     347     7,001,399  7,800       20,202     
 7 Guam[4]                824     319     172,952    210         543        
 8 Connecticut            747     288     3,617,176  4,842       12,542     
 9 U.S. Virgin Islands[4] 737     284     98,750     134         348        
10 Maryland               637     246     6,180,253  9,707       25,142     
# ℹ 51 more rows

Even after grabbing our table from wikipedia and setting it in a nice tibble format, there is still some cleaning to do before we can merge this with our state geometries:

density_data <- density_table |>
  select(1, 2, 4, 5) |>
  filter(!row_number() == 1) |>
  rename(Land_area = `Land area`) |>
  mutate(state_name = str_to_lower(as.character(Location)),
         Density = parse_number(Density),
         Population = parse_number(Population),
         Land_area = parse_number(Land_area)) |>
  select(-Location)
density_data

# A tibble: 60 × 4
   Density Population Land_area state_name            
     <dbl>      <dbl>     <dbl> <chr>                 
 1   11131     678972        61 district of columbia  
 2    1263    9290841      7354 new jersey            
 3    1060    1095962      1034 rhode island          
 4     936    3205691      3424 puerto rico           
 5     898    7001399      7800 massachusetts         
 6     824     172952       210 guam[4]               
 7     747    3617176      4842 connecticut           
 8     737      98750       134 u.s. virgin islands[4]
 9     637    6180253      9707 maryland              
10     578      43915        76 american samoa[4]     
# ℹ 50 more rows
…
# all lower case plus some extraneous rows

# Make sure all keys have the same format before joining: all lower case

states_sf <- states_sf |>
  mutate(name = str_to_lower(name))

# Now we can merge data sets together for the static and the interactive plots

# Merge with states_polygon (static)
density_polygon <- states_polygon |>
  left_join(density_data, by = c("region" = "state_name"))
density_polygon

# A tibble: 15,537 × 8
   region  group order   lat  long Density Population Land_area
   <chr>   <dbl> <int> <dbl> <dbl>   <dbl>      <dbl>     <dbl>
 1 alabama     1     1  30.4 -87.5     101    5108468     50645
 2 alabama     1     2  30.4 -87.5     101    5108468     50645
 3 alabama     1     3  30.4 -87.5     101    5108468     50645
 4 alabama     1     4  30.3 -87.5     101    5108468     50645
 5 alabama     1     5  30.3 -87.6     101    5108468     50645
 6 alabama     1     6  30.3 -87.6     101    5108468     50645
 7 alabama     1     7  30.3 -87.6     101    5108468     50645
 8 alabama     1     8  30.3 -87.6     101    5108468     50645
 9 alabama     1     9  30.3 -87.7     101    5108468     50645
10 alabama     1    10  30.3 -87.8     101    5108468     50645
# ℹ 15,527 more rows
…
