MSCS 264: Data Science 2 - Web scraping in R
…
[[2]]
# A tibble: 6 × 7
  ``                                     JulJu AugAu  SepSe  OctOc  NovNo  DecDe
  <chr>                                  <dbl> <dbl>  <dbl>  <dbl>  <dbl>  <dbl>
1 Average high in ºF Av. high Hi         83     80    72     58     41     27   
2 Average low in ºF Av. low Lo           64     62    52     40     26     12   
3 Days with precipitation Days precip.…  10     10     9      8      8      8   
4 Hours of sunshine Hours sun. Sun      343    296   237    193    115    112   
5 Av. precipitation in inch Av. precip…   4.04   4.3   3.08   2.43   1.77   1.16
6 Av. snowfall in inch Snowfall Sn        0      0     0      1      9     12   

[[3]]
# A tibble: 31 × 7
   Day    HighºF LowºF `Prec/moinch` `Prec/yrinch` `Snow/moinch` `Snow/yrinch`
   <chr>   <dbl> <dbl>         <dbl>         <dbl>         <dbl>         <dbl>
 1 1 Jan    23.8   8.3          0.04          0.04          0.39           1  
 2 2 Jan    23.7   8.2          0.08          0.08          0.71           1.8
 3 3 Jan    23.6   8.1          0.12          0.12          1.1            2.8
 4 4 Jan    23.5   7.9          0.12          0.12          1.5            3.8
 5 5 Jan    23.5   7.8          0.16          0.16          1.81           4.6
 6 6 Jan    23.4   7.7          0.2           0.2           2.2            5.6
 7 7 Jan    23.4   7.6          0.24          0.24          2.6            6.6
 8 8 Jan    23.3   7.5          0.28          0.28          3.11           7.9
 9 9 Jan    23.3   7.4          0.28          0.28          3.5            8.9
10 10 Jan   23.3   7.3          0.31          0.31          3.9            9.9
# ℹ 21 more rows

[[4]]
# A tibble: 26 × 6
   Day    HighºF LowºF Precip.inch Snowinch `Snow d.inch`
   <chr>   <dbl> <dbl> <chr>       <chr>            <dbl>
 1 01 Dec   32    19   0.07        1.61                 7
 2 02 Dec   27    12   0.00        0.00                 6
 3 03 Dec   37.9  19.9 0.00        0.00                 6
 4 04 Dec   39    24.1 0.00        0.00                 6
 5 05 Dec   37    21.9 0.00        0.00                 5
 6 06 Dec   32    17.1 0.00        0.00                 5
 7 07 Dec   42.1  21.9 0.00        0.00                 5
 8 08 Dec   41    30.9 0.00        0.00                 5
 9 09 Dec   34    -0.9 0.16        2.52                 5
10 10 Dec    8.1  -4   T           T                    7
# ℹ 16 more rows
…
content_rating <- read_html(url) |>
  html_nodes(".dli-title-metadata-item:nth-child(3)") |>
  html_text()

description <- read_html(url) |>
  html_nodes(".ipc-html-content-inner-div") |>
  html_text() |>
  str_trim()

# use tibble() to put multiple columns together into a tibble
movies2017 <- tibble(title, content_rating, description) |> 
  mutate(year = 2017)
movies2017

# A tibble: 50 × 4
   title                                      content_rating description    year
   <chr>                                      <chr>          <chr>         <dbl>
 1 1. Star Wars: Episode VIII - The Last Jedi PG-13          Rey develops…  2017
 2 2. Beauty and the Beast                    PG             A selfish Pr…  2017
 3 3. Wonder Woman                            PG-13          When a pilot…  2017
 4 4. Jumanji: Welcome to the Jungle          PG-13          Four teenage…  2017
 5 5. Guardians of the Galaxy Vol. 2          PG-13          The Guardian…  2017
 6 6. Spider-Man: Homecoming                  PG-13          Peter Parker…  2017
 7 7. It                                      R              In the summe…  2017
 8 8. Thor: Ragnarok                          PG-13          Imprisoned o…  2017
 9 9. Despicable Me 3                         PG             Gru meets hi…  2017
10 10. Justice League                         PG-13          Fueled by hi…  2017
# ℹ 40 more rows
…
content_rating <- read_html(url) |>
  html_nodes(".dli-title-metadata-item:nth-child(3)") |>
  html_text()

description <- read_html(url) |>
  html_nodes(".ipc-html-content-inner-div") |>
  html_text() |>
  str_trim()

tibble(title, content_rating, description)

# A tibble: 50 × 3
   title                             content_rating description                 
   <chr>                             <chr>          <chr>                       
 1 1. Black Panther                  PG-13          T'Challa, heir to the hidde…
 2 2. Avengers: Infinity War         PG-13          The Avengers and their alli…
 3 3. Incredibles 2                  PG             The Incredibles family take…
 4 4. Jurassic World: Fallen Kingdom PG-13          When the island's dormant v…
 5 5. Aquaman                        PG-13          Arthur Curry, the human-bor…
 6 6. Deadpool 2                     R              Foul-mouthed mutant mercena…
 7 7. The Grinch                     PG             A grumpy Grinch plots to ru…
 8 8. Mission: Impossible - Fallout  PG-13          Ethan Hunt and his IMF team…
 9 9. Ant-Man and the Wasp           PG-13          As Scott Lang balances bein…
10 10. Bohemian Rhapsody             PG-13          The story of the legendary …
# ℹ 40 more rows

movies2018 <- tibble(title, content_rating, description) |> 
  mutate(year = 2018)
movies2018

# A tibble: 50 × 4
   title                             content_rating description             year
   <chr>                             <chr>          <chr>                  <dbl>
 1 1. Black Panther                  PG-13          T'Challa, heir to the…  2018
 2 2. Avengers: Infinity War         PG-13          The Avengers and thei…  2018
 3 3. Incredibles 2                  PG             The Incredibles famil…  2018
 4 4. Jurassic World: Fallen Kingdom PG-13          When the island's dor…  2018
 5 5. Aquaman                        PG-13          Arthur Curry, the hum…  2018
 6 6. Deadpool 2                     R              Foul-mouthed mutant m…  2018
 7 7. The Grinch                     PG             A grumpy Grinch plots…  2018
 8 8. Mission: Impossible - Fallout  PG-13          Ethan Hunt and his IM…  2018
 9 9. Ant-Man and the Wasp           PG-13          As Scott Lang balance…  2018
10 10. Bohemian Rhapsody             PG-13          The story of the lege…  2018
# ℹ 40 more rows

bind_rows(movies2017, movies2018)

# A tibble: 100 × 4
   title                                      content_rating description    year
   <chr>                                      <chr>          <chr>         <dbl>
 1 1. Star Wars: Episode VIII - The Last Jedi PG-13          Rey develops…  2017
 2 2. Beauty and the Beast                    PG             A selfish Pr…  2017
 3 3. Wonder Woman                            PG-13          When a pilot…  2017
 4 4. Jumanji: Welcome to the Jungle          PG-13          Four teenage…  2017
 5 5. Guardians of the Galaxy Vol. 2          PG-13          The Guardian…  2017
 6 6. Spider-Man: Homecoming                  PG-13          Peter Parker…  2017
 7 7. It                                      R              In the summe…  2017
 8 8. Thor: Ragnarok                          PG-13          Imprisoned o…  2017
 9 9. Despicable Me 3                         PG             Gru meets hi…  2017
10 10. Justice League                         PG-13          Fueled by hi…  2017
# ℹ 90 more rows
…
description <- read_html(url) |>
  html_nodes(".ipc-html-content-inner-div") |>
  html_text() |>
  str_trim()

tibble(title, content_rating, description) |> 
  mutate(year = year)
}

scrape_moviedata(2017)

 www.imdb.com                      

# A tibble: 50 × 4
   title                                      content_rating description    year
   <chr>                                      <chr>          <chr>         <dbl>
 1 1. Star Wars: Episode VIII - The Last Jedi PG-13          Rey develops…  2017
 2 2. Beauty and the Beast                    PG             A selfish Pr…  2017
 3 3. Wonder Woman                            PG-13          When a pilot…  2017
 4 4. Jumanji: Welcome to the Jungle          PG-13          Four teenage…  2017
 5 5. Guardians of the Galaxy Vol. 2          PG-13          The Guardian…  2017
 6 6. Spider-Man: Homecoming                  PG-13          Peter Parker…  2017
 7 7. It                                      R              In the summe…  2017
 8 8. Thor: Ragnarok                          PG-13          Imprisoned o…  2017
 9 9. Despicable Me 3                         PG             Gru meets hi…  2017
10 10. Justice League                         PG-13          Fueled by hi…  2017
# ℹ 40 more rows

moviedata <- bind_rows(scrape_moviedata(2017),
          scrape_moviedata(2018),
          scrape_moviedata(2019))

 www.imdb.com                      

 www.imdb.com                      

 www.imdb.com                      

moviedata

# A tibble: 150 × 4
   title                                      content_rating description    year
   <chr>                                      <chr>          <chr>         <dbl>
 1 1. Star Wars: Episode VIII - The Last Jedi PG-13          Rey develops…  2017
 2 2. Beauty and the Beast                    PG             A selfish Pr…  2017
 3 3. Wonder Woman                            PG-13          When a pilot…  2017
 4 4. Jumanji: Welcome to the Jungle          PG-13          Four teenage…  2017
 5 5. Guardians of the Galaxy Vol. 2          PG-13          The Guardian…  2017
 6 6. Spider-Man: Homecoming                  PG-13          Peter Parker…  2017
 7 7. It                                      R              In the summe…  2017
 8 8. Thor: Ragnarok                          PG-13          Imprisoned o…  2017
 9 9. Despicable Me 3                         PG             Gru meets hi…  2017
10 10. Justice League                         PG-13          Fueled by hi…  2017
# ℹ 140 more rows
…
